%YAML 1.1
%TAG !u! tag:unity3d.com,2011:
--- !u!114 &11400000
MonoBehaviour:
  m_ObjectHideFlags: 0
  m_CorrespondingSourceObject: {fileID: 0}
  m_PrefabInstance: {fileID: 0}
  m_PrefabAsset: {fileID: 0}
  m_GameObject: {fileID: 0}
  m_Enabled: 1
  m_EditorHideFlags: 0
  m_Script: {fileID: 11500000, guid: e03ee8eec6fc3934fabf241990aea2ca, type: 3}
  m_Name: sushi
  m_EditorClassIdentifier: 
  content: <SENDER> come to Sushi for Pushi! Its grate!
  response: <RECEIVER> sure. y not?
  sprite: {fileID: 0}
