%YAML 1.1
%TAG !u! tag:unity3d.com,2011:
--- !u!114 &11400000
MonoBehaviour:
  m_ObjectHideFlags: 0
  m_CorrespondingSourceObject: {fileID: 0}
  m_PrefabInstance: {fileID: 0}
  m_PrefabAsset: {fileID: 0}
  m_GameObject: {fileID: 0}
  m_Enabled: 1
  m_EditorHideFlags: 0
  m_Script: {fileID: 11500000, guid: 5fe98d612e054444c8ea31f80bb4eafe, type: 3}
  m_Name: Buildings
  m_EditorClassIdentifier: 
  locations:
  - flat
  - apartment
  - mansion
  - villa
  - house
  - hospital
  - train station
  - library
  - rehab clinic
  - strip club
