%YAML 1.1
%TAG !u! tag:unity3d.com,2011:
--- !u!114 &11400000
MonoBehaviour:
  m_ObjectHideFlags: 0
  m_CorrespondingSourceObject: {fileID: 0}
  m_PrefabInstance: {fileID: 0}
  m_PrefabAsset: {fileID: 0}
  m_GameObject: {fileID: 0}
  m_Enabled: 1
  m_EditorHideFlags: 0
  m_Script: {fileID: 11500000, guid: 5fe98d612e054444c8ea31f80bb4eafe, type: 3}
  m_Name: LocationTagHolder
  m_EditorClassIdentifier: 
  locations:
  - Mexico City
  - Colombia
  - Bogota
  - Brazil
  - Japan
  - the US
  - the UK
  - London
  - LA
  - San Francisco
  - New York
  - South Korea
  - North Korea
  - the Vatican
  - Tokyo
  - Paris
  - France
  - Germany
  - Berlin
  - Russia
  - Moscow
  - China
  - Hong Kong
  - Beijing
  - Shanghai
  - Australia
  - Sydney
  - New Zealand
  - Wellington
  - Mexico
