%YAML 1.1
%TAG !u! tag:unity3d.com,2011:
--- !u!1 &7921675725490295055
GameObject:
  m_ObjectHideFlags: 0
  m_CorrespondingSourceObject: {fileID: 0}
  m_PrefabInstance: {fileID: 0}
  m_PrefabAsset: {fileID: 0}
  serializedVersion: 6
  m_Component:
  - component: {fileID: 1967460789199982123}
  m_Layer: 0
  m_Name: WestWallPrefab
  m_TagString: Untagged
  m_Icon: {fileID: 0}
  m_NavMeshLayer: 0
  m_StaticEditorFlags: 0
  m_IsActive: 1
--- !u!4 &1967460789199982123
Transform:
  m_ObjectHideFlags: 0
  m_CorrespondingSourceObject: {fileID: 0}
  m_PrefabInstance: {fileID: 0}
  m_PrefabAsset: {fileID: 0}
  m_GameObject: {fileID: 7921675725490295055}
  m_LocalRotation: {x: 0, y: 0, z: 0, w: 1}
  m_LocalPosition: {x: 0, y: 0, z: 0}
  m_LocalScale: {x: 1, y: 1, z: 1}
  m_Children:
  - {fileID: 3053754215470613540}
  m_Father: {fileID: 0}
  m_RootOrder: 0
  m_LocalEulerAnglesHint: {x: 0, y: 0, z: 0}
--- !u!1001 &1584914730626418572
PrefabInstance:
  m_ObjectHideFlags: 0
  serializedVersion: 2
  m_Modification:
    m_TransformParent: {fileID: 1967460789199982123}
    m_Modifications:
    - target: {fileID: 4584561939828425644, guid: a04f12cb8c7b21b47be201b0f36afbd5,
        type: 3}
      propertyPath: m_Name
      value: Plane
      objectReference: {fileID: 0}
    - target: {fileID: 4584561939828425640, guid: a04f12cb8c7b21b47be201b0f36afbd5,
        type: 3}
      propertyPath: m_LocalPosition.x
      value: 0
      objectReference: {fileID: 0}
    - target: {fileID: 4584561939828425640, guid: a04f12cb8c7b21b47be201b0f36afbd5,
        type: 3}
      propertyPath: m_LocalPosition.y
      value: 6.5
      objectReference: {fileID: 0}
    - target: {fileID: 4584561939828425640, guid: a04f12cb8c7b21b47be201b0f36afbd5,
        type: 3}
      propertyPath: m_LocalPosition.z
      value: 0
      objectReference: {fileID: 0}
    - target: {fileID: 4584561939828425640, guid: a04f12cb8c7b21b47be201b0f36afbd5,
        type: 3}
      propertyPath: m_LocalRotation.x
      value: -0.5
      objectReference: {fileID: 0}
    - target: {fileID: 4584561939828425640, guid: a04f12cb8c7b21b47be201b0f36afbd5,
        type: 3}
      propertyPath: m_LocalRotation.y
      value: -0.5
      objectReference: {fileID: 0}
    - target: {fileID: 4584561939828425640, guid: a04f12cb8c7b21b47be201b0f36afbd5,
        type: 3}
      propertyPath: m_LocalRotation.z
      value: -0.5
      objectReference: {fileID: 0}
    - target: {fileID: 4584561939828425640, guid: a04f12cb8c7b21b47be201b0f36afbd5,
        type: 3}
      propertyPath: m_LocalRotation.w
      value: 0.5
      objectReference: {fileID: 0}
    - target: {fileID: 4584561939828425640, guid: a04f12cb8c7b21b47be201b0f36afbd5,
        type: 3}
      propertyPath: m_RootOrder
      value: 0
      objectReference: {fileID: 0}
    - target: {fileID: 4584561939828425640, guid: a04f12cb8c7b21b47be201b0f36afbd5,
        type: 3}
      propertyPath: m_LocalEulerAnglesHint.x
      value: -90
      objectReference: {fileID: 0}
    - target: {fileID: 4584561939828425640, guid: a04f12cb8c7b21b47be201b0f36afbd5,
        type: 3}
      propertyPath: m_LocalEulerAnglesHint.y
      value: -90
      objectReference: {fileID: 0}
    - target: {fileID: 4584561939828425640, guid: a04f12cb8c7b21b47be201b0f36afbd5,
        type: 3}
      propertyPath: m_LocalEulerAnglesHint.z
      value: 0
      objectReference: {fileID: 0}
    - target: {fileID: 4584561939828425640, guid: a04f12cb8c7b21b47be201b0f36afbd5,
        type: 3}
      propertyPath: m_LocalScale.y
      value: 1
      objectReference: {fileID: 0}
    - target: {fileID: 4584561939828425640, guid: a04f12cb8c7b21b47be201b0f36afbd5,
        type: 3}
      propertyPath: m_LocalScale.x
      value: 1
      objectReference: {fileID: 0}
    - target: {fileID: 4584561939828425640, guid: a04f12cb8c7b21b47be201b0f36afbd5,
        type: 3}
      propertyPath: m_LocalScale.z
      value: 1.3
      objectReference: {fileID: 0}
    - target: {fileID: 4584561939828425646, guid: a04f12cb8c7b21b47be201b0f36afbd5,
        type: 3}
      propertyPath: m_Materials.Array.data[0]
      value: 
      objectReference: {fileID: 2100000, guid: 4d96c9efe36307f4d80aaae8879076b6, type: 2}
    m_RemovedComponents: []
  m_SourcePrefab: {fileID: 100100000, guid: a04f12cb8c7b21b47be201b0f36afbd5, type: 3}
--- !u!4 &3053754215470613540 stripped
Transform:
  m_CorrespondingSourceObject: {fileID: 4584561939828425640, guid: a04f12cb8c7b21b47be201b0f36afbd5,
    type: 3}
  m_PrefabInstance: {fileID: 1584914730626418572}
  m_PrefabAsset: {fileID: 0}
