%YAML 1.1
%TAG !u! tag:unity3d.com,2011:
--- !u!114 &11400000
MonoBehaviour:
  m_ObjectHideFlags: 0
  m_CorrespondingSourceObject: {fileID: 0}
  m_PrefabInstance: {fileID: 0}
  m_PrefabAsset: {fileID: 0}
  m_GameObject: {fileID: 0}
  m_Enabled: 1
  m_EditorHideFlags: 0
  m_Script: {fileID: 11500000, guid: 3e27584382bba7d43bb3a8a828386867, type: 3}
  m_Name: Slightly Clueless
  m_EditorClassIdentifier: 
  prefab: {fileID: 305979792175821038, guid: 105a10f4a73d92d4282af0e5dcdf2a6f, type: 3}
  level: 1
