%YAML 1.1
%TAG !u! tag:unity3d.com,2011:
--- !u!1 &4470515078727721172
GameObject:
  m_ObjectHideFlags: 0
  m_CorrespondingSourceObject: {fileID: 0}
  m_PrefabInstance: {fileID: 0}
  m_PrefabAsset: {fileID: 0}
  serializedVersion: 6
  m_Component:
  - component: {fileID: 4470515078727721178}
  - component: {fileID: 4470515078727721179}
  m_Layer: 0
  m_Name: MessageManager
  m_TagString: Untagged
  m_Icon: {fileID: 0}
  m_NavMeshLayer: 0
  m_StaticEditorFlags: 0
  m_IsActive: 1
--- !u!4 &4470515078727721178
Transform:
  m_ObjectHideFlags: 0
  m_CorrespondingSourceObject: {fileID: 0}
  m_PrefabInstance: {fileID: 0}
  m_PrefabAsset: {fileID: 0}
  m_GameObject: {fileID: 4470515078727721172}
  m_LocalRotation: {x: 0, y: 0, z: 0, w: 1}
  m_LocalPosition: {x: 0, y: 0, z: 0}
  m_LocalScale: {x: 1, y: 1, z: 1}
  m_Children: []
  m_Father: {fileID: 0}
  m_RootOrder: 0
  m_LocalEulerAnglesHint: {x: 0, y: 0, z: 0}
--- !u!114 &4470515078727721179
MonoBehaviour:
  m_ObjectHideFlags: 0
  m_CorrespondingSourceObject: {fileID: 0}
  m_PrefabInstance: {fileID: 0}
  m_PrefabAsset: {fileID: 0}
  m_GameObject: {fileID: 4470515078727721172}
  m_Enabled: 1
  m_EditorHideFlags: 0
  m_Script: {fileID: 11500000, guid: d9718dbb210bdbf4682b022a859207c1, type: 3}
  m_Name: 
  m_EditorClassIdentifier: 
  messagePrefab: {fileID: 9059359685127973080, guid: 7383e8bffbd3ccd408a91e57b4ed024f,
    type: 3}
  names:
  - {fileID: 11400000, guid: b5a22b515b31e6e40991d1ddd7e51c84, type: 2}
  - {fileID: 11400000, guid: 6affb427e11348d4884edfe3e6d2b5b5, type: 2}
  - {fileID: 11400000, guid: 6b131936a3036a04ca5c76845679a1e9, type: 2}
  - {fileID: 11400000, guid: ef7c94ae7137fb343b3b51e849b9ab57, type: 2}
  - {fileID: 11400000, guid: cbde2d6c474792d4e92f526ee31a21db, type: 2}
  - {fileID: 11400000, guid: ea38dc27dea4cd14b8528ca77381d52f, type: 2}
  - {fileID: 11400000, guid: e77dc0516de953d4f8a487359f24f02f, type: 2}
  - {fileID: 11400000, guid: a98ac1a8b98a17648a2319100d4b0f06, type: 2}
  - {fileID: 11400000, guid: 7edfbde12d4b2844dab34b9fb38b0937, type: 2}
  - {fileID: 11400000, guid: 4db1b18ae8cf67c4fa1a4ca99f6b833c, type: 2}
  - {fileID: 11400000, guid: c9687be809ad07a4a9f445da45079efc, type: 2}
  - {fileID: 11400000, guid: ce6fa8c462a8b5e47930f56f39cb701a, type: 2}
  - {fileID: 11400000, guid: b1827e218448e3248aaa0ba46f932e32, type: 2}
  - {fileID: 11400000, guid: 755aa82144a30bd4dacdb2cee5bf3c10, type: 2}
  - {fileID: 11400000, guid: 1b79e6c9d41049848a68cb5f65b98576, type: 2}
  - {fileID: 11400000, guid: 5973a9ab8ceaeca4a9faa7eee86851a1, type: 2}
  - {fileID: 11400000, guid: d4dd4d18f7063464d9d46fe7763d4362, type: 2}
  - {fileID: 11400000, guid: 1a3e22d5f7f745c4b9f9796a0939b233, type: 2}
  - {fileID: 11400000, guid: 9310b73d027da0b46814aabea256d96a, type: 2}
  npcName: {fileID: 0}
  messages:
  - {fileID: 11400000, guid: 9ea569a5c6be1934f834e088e180ef47, type: 2}
  - {fileID: 11400000, guid: 9c8ebbe8641d3e941b88682e661960ec, type: 2}
  - {fileID: 11400000, guid: 789d43a6dd679394ab5887e9ac6b1a2d, type: 2}
  - {fileID: 11400000, guid: 940039396e95cc34aab005c5be4e1d5c, type: 2}
  - {fileID: 11400000, guid: bc1dbbd2487bcaa46baebb14296da951, type: 2}
  - {fileID: 11400000, guid: d873747ddc69f034687cc62dcc24814a, type: 2}
  - {fileID: 11400000, guid: 931f78d13b2769849af12c3e07c7886a, type: 2}
  - {fileID: 11400000, guid: f943f8eb901a40e4aba62f339ea32cd7, type: 2}
  - {fileID: 11400000, guid: 27e898db6a2142548bca2fb5f470b945, type: 2}
  - {fileID: 11400000, guid: f0d6e0baf02ae0f47a0fc69cb691830b, type: 2}
  - {fileID: 11400000, guid: 2f202dfe33924c04eb8659b0719a6a1e, type: 2}
  - {fileID: 11400000, guid: 981aab7faa055cf44b00f5bc8102e0cd, type: 2}
  - {fileID: 11400000, guid: e16813c02f5429c4595332fbc55ad147, type: 2}
  - {fileID: 11400000, guid: 84f8f9c17f0b05743baa6a45b9b78f9d, type: 2}
  - {fileID: 11400000, guid: 05c1327651439cc40a8660f7ad1837be, type: 2}
  - {fileID: 11400000, guid: 68c7385bf4f4bd349a1df939f22cce5c, type: 2}
  - {fileID: 11400000, guid: 34695f962580e4747972d2c175ca7a73, type: 2}
  - {fileID: 11400000, guid: 682e1b88dcc8c6143bcccc0b62f1c1a2, type: 2}
  - {fileID: 11400000, guid: f7c1afddf566b7f45accc3b504329d39, type: 2}
  - {fileID: 11400000, guid: 033860006de1143419a96145ab329c40, type: 2}
  - {fileID: 11400000, guid: 677d9cdf3918edc42907c8b0421b5a6f, type: 2}
  - {fileID: 11400000, guid: 6b5d33138c9e8394f929f2ed1f7b8d9b, type: 2}
  - {fileID: 11400000, guid: adbd89a8af5113b4b8cc2b18c9c18e22, type: 2}
  - {fileID: 11400000, guid: 102d9240cbd285947b83bae05b2e4152, type: 2}
  - {fileID: 11400000, guid: 39a856c976fd11c49aeffdd63c042bbc, type: 2}
  - {fileID: 11400000, guid: 56ee9b48aad19654d9b590f294347686, type: 2}
  - {fileID: 11400000, guid: 25fe5983ec076e44095eb8bd168be716, type: 2}
  - {fileID: 11400000, guid: a8c4706bdd8494e46b0a7ef5dd724065, type: 2}
  - {fileID: 11400000, guid: 1be70fa7dc981dc4782679ac603aad87, type: 2}
  - {fileID: 11400000, guid: 87cce673eeba32e409245921e4b174c5, type: 2}
  location: {fileID: 11400000, guid: 291500ef1f1e99b418b09486d27e8415, type: 2}
  buildings: {fileID: 11400000, guid: 6ad3d9b05d924a443884f344d0ea7f9e, type: 2}
  companies: {fileID: 11400000, guid: c1bf5c69d8643c74c8156aa13ab3ce30, type: 2}
  bodyparts: {fileID: 11400000, guid: 16e9185fdb317d742b4f527b5f108be9, type: 2}
  celebrities: {fileID: 11400000, guid: 3dded27e5c9cae5489ba6b54c91ada9b, type: 2}
  sns:
  - {fileID: 11400000, guid: b8767381cc867a745bb7f02ea4ce8777, type: 2}
  - {fileID: 11400000, guid: e73a68e6f8ae5b044a20e4e8281a3421, type: 2}
  - {fileID: 11400000, guid: 5db4534f9ce6b624481e898b41e55c8b, type: 2}
  - {fileID: 11400000, guid: 75a5cb1361990aa489918237a1be0275, type: 2}
