%YAML 1.1
%TAG !u! tag:unity3d.com,2011:
--- !u!114 &11400000
MonoBehaviour:
  m_ObjectHideFlags: 0
  m_CorrespondingSourceObject: {fileID: 0}
  m_PrefabInstance: {fileID: 0}
  m_PrefabAsset: {fileID: 0}
  m_GameObject: {fileID: 0}
  m_Enabled: 1
  m_EditorHideFlags: 0
  m_Script: {fileID: 11500000, guid: d315e5bd7d6a29c4ba767c2210dde81f, type: 3}
  m_Name: Purrer
  m_EditorClassIdentifier: 
  sprite: {fileID: 21300000, guid: 068cf3d1de0d314419de8ba2b7c11e11, type: 3}
